{
"companyDefect": [
{
"id": 29,
"defect_title": "ห้อง 103 โถสุขภัณฑ์ชำรุด",
"defect_detail": null,
"defect_deadline": "2018-06-21",
"report_company": "บริษัท กาญจน์กนก พร็อพเพอร์ตี้ จำกัด",
"report_user_name": "บริษัท กาญจน์กนก พร็อพเพอร์ตี้ จำกัด",
"report_user_position": null,
"report_company_address": "บริษัท กาญจน์กนก พร็อพเพอร์ตี้ จำกัด 88/8 หมู่ 2 ต.หนองผึ้ง อ.สารภี จ.เชียงใหม่ 50140",
"project_address": "สี่แยกทางลอดอุโมงค์บวกครก ถ.สันกำแพงสายเก่า 1006 ตำบล หนองป่าครั่ง อำเภอเมืองเชียงใหม่ เชียงใหม่ 50000 ประเทศไทย",
"project_name": "บิสพอยท์ 1",
"plan_name": "แปลนบิสพอยท์ 1 ชั้น 2",
"plan_floor": 2
}
],
"companyDefectPoint": [
{
"name": "โถสุขภัณฑ์ชำรุด"
}
],
"companyDefectImages": [
{
"path": "images/companies/COMP0001/projects/PROJ0001/defects/114de663b64fc6c54edd51d3424b570114e8f3f3.jpg"
}
],
"companyDefectManagement": [
{
"user_manage_name": "บริษัท กาญจน์กนก พร็อพเพอร์ตี้ จำกัด",
"detail": "ดำเนินการซ่อมวันแรก",
"date": "2018-06-19 17:35:28",
"approv_by": null,
"image": "images/companies/COMP0001/projects/PROJ0001/defectReports/010fd441ef3b50202cf77f157afa2f4c2213cfec.jpg",
"start": "2018-06-20 08:00:00",
"end": "2018-06-21 12:00:00"
},
{
"user_manage_name": "บริษัท กาญจน์กนก พร็อพเพอร์ตี้ จำกัด",
"detail": "ดำเนินการซ่อมวันแรก",
"date": "2018-06-19 17:35:28",
"approv_by": null,
"image": "images/companies/COMP0001/projects/PROJ0001/defectReports/010fd441ef3b50202cf77f157afa2f4c2213cfec.jpg",
"start": "2018-06-19 17:33:34",
"end": "2018-06-19 17:36:00"
}
]
}